User-ID,Name,Email,Password,Security Question,fbs-1,fbs-2,fbs-3,fbs-4
1,teddo,new_email@example.com,teddi123,fannafold,,,,
2,Magdalena,magda@gmail.com,Magdalena1,Zajazd,grandi,miklabraut,,
3,,,,,,,,
4,hi,m,m,m,,grandi,,
5,new,new,k,k,,,,
6,o,o,new_password,o,,,,
7,1,,,,,,,
8,j,j,j,j,,,,
9,r,,r,r,,,,
10,w,e,,e,,,,
11,John,john@gmail.com,password,FirstStreet,,,,
12,John,new_email@gmail.com,password,FirstStreet,,,,
13,ari jonsson,firngrmail,1234,o4,,,,
